Case-Study 1: The Paisley Prison dataset – Quantification in History - HIST1505/HIST1515
…
# Install/load packages
install.packages("tidyverse")
library(tidyverse)
library(readxl)
data <- read_excel("data/paisley-data.xlsx")

Inspecting the data

Once the data is imported into the R environment as an object, we can start inspecting it as shown in the Intro to R section. As shown in the Global Environment, in the upper left corner, this this data frame (referred to as a tibble in the tidyverse terminology) contains 1,000 individuals (rows) and 21 fields (columns). Typing the name of the object (data) only provides information on the 10 first cases in order to save memory and space. Notice also that, below the variable name, R also indicates the type of variable: some are categorical (“chr” meaning character) and others are numerical (“dbl” meaning double).

data

# A tibble: 1,000 × 21
   casen    no month     year forename surname sex     age born  countryb reside
   <dbl> <dbl> <chr>    <dbl> <chr>    <chr>   <chr> <dbl> <chr> <chr>    <chr> 
 1     1    17 january   1841 AGNES    M'INTY… fema…    24 pais… scotland colin…
 2     2    45 january   1841 CATHERI… CARLIN… fema…    30 irvi… scotland paisl…
 3     3    68 january   1841 JEAN     WRIGHT  fema…    17 pais… scotland paisl…
 4     4    91 february  1841 MARGRET  M'HAFF… fema…    18 glas… scotland paisl…
 5     5    93 february  1841 JANET    M'LEAN  fema…    25 cath… scotland strab…
 6     6   263 april     1841 ELIZA    DUNCAN  fema…    34 belf… ireland  paisl…
 7     7   280 april     1841 ANN      RYLEY   fema…    45 sligo ireland  glasg…
 8     8   299 april     1841 MARGRET  M'LEOD  fema…    40 gree… scotland green…
 9     9   300 april     1841 MARY     MILLAR… fema…    19 gree… scotland green…
10    10   310 april     1841 JEAN     M'KINL… fema…    29 glas… scotland pollo…
# ℹ 990 more rows
# ℹ 10 more variables: feet <dbl>, inches <dbl>, weight <dbl>, occup <chr>,
#   employed <chr>, literacy <chr>, marks <chr>, offence <chr>, sentence <chr>,
#   source <chr>

If you want to display more cases, you can use the function print(n = 15) and indicate the number of cases to be reported. Let’s pause for a moment to disect what the code below is doing. Notice first that it is crucial to indicate where the information you are asking for is coming from. Remember that we imported the Paisley data into the object name data. The pipe (|>) here basically takes this object and uses it as input in the next line of code, which uses the function print() to request listing the first 15 cases from that object. Alternatively, you can have a look at the last 20 cases by typing tail(20).

data |>  
  print(n = 15)

# A tibble: 1,000 × 21
   casen    no month     year forename surname sex     age born  countryb reside
   <dbl> <dbl> <chr>    <dbl> <chr>    <chr>   <chr> <dbl> <chr> <chr>    <chr> 
 1     1    17 january   1841 AGNES    M'INTY… fema…    24 pais… scotland colin…
 2     2    45 january   1841 CATHERI… CARLIN… fema…    30 irvi… scotland paisl…
 3     3    68 january   1841 JEAN     WRIGHT  fema…    17 pais… scotland paisl…
 4     4    91 february  1841 MARGRET  M'HAFF… fema…    18 glas… scotland paisl…
 5     5    93 february  1841 JANET    M'LEAN  fema…    25 cath… scotland strab…
 6     6   263 april     1841 ELIZA    DUNCAN  fema…    34 belf… ireland  paisl…
 7     7   280 april     1841 ANN      RYLEY   fema…    45 sligo ireland  glasg…
 8     8   299 april     1841 MARGRET  M'LEOD  fema…    40 gree… scotland green…
 9     9   300 april     1841 MARY     MILLAR… fema…    19 gree… scotland green…
10    10   310 april     1841 JEAN     M'KINL… fema…    29 glas… scotland pollo…
11    11   343 may       1841 AGNES    CURRIE… fema…    35 islay scotland paisl…
12    12   382 june      1841 ELLIZA   MUNN    fema…    18 john… scotland johns…
13    13   425 june      1841 SARAH    BLACK … fema…    36 glas… scotland kelvi…
14    57     3 january   1841 THOMAS   ROBERT… male     19 pais… scotland high …
15    58    19 january   1841 JOHN     MONTGO… male     24 some… england  barra…
# ℹ 985 more rows
# ℹ 10 more variables: feet <dbl>, inches <dbl>, weight <dbl>, occup <chr>,
#   employed <chr>, literacy <chr>, marks <chr>, offence <chr>, sentence <chr>,
#   source <chr>
…
# A tibble: 3 × 2
  employed       n
  <chr>      <int>
1 employed     101
2 unemployed    78
3 <NA>         821

As with other commands listing information, count() only reports the first 10 categories by default. Some variables, such as occupation (occup) has many categories, so you probably want to inspect all of them. You can just indicate explicitly how many categories you want to display by using the function print(): while indicating n = 15 displays information on the first 15 categories, typing n = Inf reports all rows. Notice also that this command is now 3 lines long and we are using the pipe (|>) in each line to implement this sequence of instructions: the pipe takes the output from that line and uses it as an input in the following line.

data |>  
  count(occup) |>
  print(n = 15)

# A tibble: 209 × 2
   occup             n
   <chr>         <int>
 1 at school         1
 2 baker            15
 3 barber            1
 4 black smith      10
 5 blacksmith        1
 6 bleacher         13
 7 block maker       1
 8 block print       1
 9 block printer     1
10 boat builde       1
11 boatman           7
12 boatyard          1
13 boiler make       3
14 boiler maker      1
15 boilermaker       2
# ℹ 194 more rows

As the previous example using occupations show, frequency tables are not that useful when the variable contains a large number of categories. Also, by default, count() reports the different categories in alphabetical order which is often not particularly useful. In such case, it is better to present the categories according to their relative importance in order to quickly identify the most important categories. This is achieved by introducing the option sort and set it up as TRUE. The results indicate that the most common occupation was “labourer”, followed by “prostitute” and the rest. We also have 22 prisoners whose occupation was not recorded. You may wonder whether they did not want to report it or they did not have one. The same output can be achieved using the function arrange(desc(n)), which enables presenting the data in descending order based on the column n.

data |>  
  count(occup, sort = TRUE)

# A tibble: 209 × 2
   occup            n
   <chr>        <int>
 1 labourer       181
 2 prostitute      81
 3 weaver          40
 4 carter          28
 5 hawker          28
 6 miner           28
 7 house keeper    23
 8 seaman          22
 9 <NA>            22
10 house keepe     16
# ℹ 199 more rows

These simple descriptions of the data not only allow identifying what is typical, but also what is rare. In this regard, we can use arrange() to report those occupations that are less common among prisoners. Note that, by default, arrange() sorts the data in ascending order, so this command only needs the name of the field that serves to sort the data in ascending order (in the previous examples, we explicitly indicated that we wanted the data to be presented in descending order using the desc() argument). As seen below, it is also possible to extend the pipe (|>) and use print() to report more categories if needed.

data |>  
  count(occup) |> 
  arrange(n) |> 
  print(n=15) 

# A tibble: 209 × 2
   occup              n
   <chr>          <int>
 1 at school          1
 2 barber             1
 3 blacksmith         1
 4 block maker        1
 5 block print        1
 6 block printer      1
 7 boat builde        1
 8 boatyard           1
 9 boiler maker       1
10 boot binder        1
11 brick maker        1
12 brothel keeper     1
13 butcher            1
14 cab driver         1
15 cabinet making     1
# ℹ 194 more rows
…
data |>  
  count(occup, sort = TRUE) |>              
  mutate(prop = n/sum(n)) 

# A tibble: 209 × 3
   occup            n  prop
   <chr>        <int> <dbl>
 1 labourer       181 0.181
 2 prostitute      81 0.081
 3 weaver          40 0.04 
 4 carter          28 0.028
 5 hawker          28 0.028
 6 miner           28 0.028
 7 house keeper    23 0.023
 8 seaman          22 0.022
 9 <NA>            22 0.022
10 house keepe     16 0.016
# ℹ 199 more rows
…
Numerical variables

Let’s now explore variables that are expressed using numerical values. In the Paisley dataset, we only have three numerical variables: age, height and weight. Their specific properties advice to analyse them using a wider set of statistics. In this regard, simply reporting frequencies is often not very useful, especially when these variables include a large range of values. See, for instance, what happens when construct frequency table using now the variable age. The results report the number of observations falling in each category: 2 prisoners aged 9 years, 3 aged 10, etc. (we have also used mutate() to create an additional column with the relative frequency expressed as percentages). For questions of space, we just report the first 10 rows but the point is clear. You can display the full table, containing 62 rows, by adding the option print(n=Inf). The full table obviously provides interesting insights but it is simply too large for being useful as an interpretative tool.

data |>  
  count(age) |>              
  mutate(perc = 100*n/sum(n))

# A tibble: 62 × 3
     age     n  perc
   <dbl> <int> <dbl>
 1     9     2   0.2
 2    10     3   0.3
 3    11     4   0.4
 4    12     9   0.9
 5    13     6   0.6
 6    14    18   1.8
 7    15    17   1.7
 8    16    18   1.8
 9    17    30   3  
10    18    48   4.8
# ℹ 52 more rows
…
